EESchema Schematic File Version 4
EELAYER 30 0
EELAYER END
$Descr A4 11693 8268
encoding utf-8
Sheet 1 1
Title ""
Date ""
Rev ""
Comp ""
Comment1 ""
Comment2 ""
Comment3 ""
Comment4 ""
$EndDescr
$Comp
L car_brake-rescue:ATtiny85-20SU-MCU_Microchip_ATtiny U2
U 1 1 5CDD9032
P 6150 3700
F 0 "U2" H 5621 3746 50  0000 R CNN
F 1 "ATtiny85-20SU" H 5621 3655 50  0000 R CNN
F 2 "Package_SO:SOIJ-8_5.3x5.3mm_P1.27mm" H 6150 3700 50  0001 C CIN
F 3 "http://ww1.microchip.com/downloads/en/DeviceDoc/atmel-2586-avr-8-bit-microcontroller-attiny25-attiny45-attiny85_datasheet.pdf" H 6150 3700 50  0001 C CNN
	1    6150 3700
	1    0    0    -1  
$EndComp
$Comp
L Connector:Screw_Terminal_01x02 J1
U 1 1 5CDD9C22
P 3600 3550
F 0 "J1" H 3680 3542 50  0000 L CNN
F 1 "POWER" H 3680 3451 50  0000 L CNN
F 2 "itay_kicad:TerminalBlock_1.5-2pol" H 3600 3550 50  0001 C CNN
F 3 "~" H 3600 3550 50  0001 C CNN
	1    3600 3550
	-1   0    0    1   
$EndComp
$Comp
L Connector:Screw_Terminal_01x02 J2
U 1 1 5CDDA024
P 3600 4000
F 0 "J2" H 3680 3992 50  0000 L CNN
F 1 "TRIGGER" H 3680 3901 50  0000 L CNN
F 2 "itay_kicad:TerminalBlock_1.5-2pol" H 3600 4000 50  0001 C CNN
F 3 "~" H 3600 4000 50  0001 C CNN
	1    3600 4000
	-1   0    0    1   
$EndComp
$Comp
L itays_kicad_lib:GND #PWR0101
U 1 1 5CDDB179
P 3850 3550
F 0 "#PWR0101" H 3850 3300 50  0001 C CNN
F 1 "GND" H 3855 3377 50  0000 C CNN
F 2 "" H 3850 3550 50  0000 C CNN
F 3 "" H 3850 3550 50  0000 C CNN
	1    3850 3550
	1    0    0    -1  
$EndComp
Wire Wire Line
	3850 3550 3800 3550
$Comp
L itays_kicad_lib:GND #PWR0102
U 1 1 5CDDB6FA
P 3850 4000
F 0 "#PWR0102" H 3850 3750 50  0001 C CNN
F 1 "GND" H 3855 3827 50  0000 C CNN
F 2 "" H 3850 4000 50  0000 C CNN
F 3 "" H 3850 4000 50  0000 C CNN
	1    3850 4000
	1    0    0    -1  
$EndComp
Wire Wire Line
	3850 4000 3800 4000
Wire Wire Line
	3850 3550 3950 3550
Connection ~ 3850 3550
Wire Wire Line
	3800 3450 3950 3450
Wire Wire Line
	3800 3900 3900 3900
Text GLabel 3900 3900 2    50   Input ~ 0
TRG_12V
$Comp
L itays_kicad_lib:GND #PWR0103
U 1 1 5CDE8095
P 4750 3550
F 0 "#PWR0103" H 4750 3300 50  0001 C CNN
F 1 "GND" H 4755 3377 50  0000 C CNN
F 2 "" H 4750 3550 50  0000 C CNN
F 3 "" H 4750 3550 50  0000 C CNN
	1    4750 3550
	1    0    0    -1  
$EndComp
$Comp
L Connector:Screw_Terminal_01x03 J3
U 1 1 5CDDA50E
P 3600 4650
F 0 "J3" H 3680 4692 50  0000 L CNN
F 1 "NEOPIXEL" H 3680 4601 50  0000 L CNN
F 2 "itay_kicad:TerminalBlock_1.5-3pol" H 3600 4650 50  0001 C CNN
F 3 "~" H 3600 4650 50  0001 C CNN
	1    3600 4650
	-1   0    0    1   
$EndComp
Text GLabel 3850 4550 1    50   Input ~ 0
PIXELS
$Comp
L itays_kicad_lib:GND #PWR0104
U 1 1 5CDEE0CD
P 6150 4300
F 0 "#PWR0104" H 6150 4050 50  0001 C CNN
F 1 "GND" H 6155 4127 50  0000 C CNN
F 2 "" H 6150 4300 50  0000 C CNN
F 3 "" H 6150 4300 50  0000 C CNN
	1    6150 4300
	1    0    0    -1  
$EndComp
$Comp
L power:+5V #PWR0105
U 1 1 5CDEE4F3
P 6150 3100
F 0 "#PWR0105" H 6150 2950 50  0001 C CNN
F 1 "+5V" H 6165 3273 50  0000 C CNN
F 2 "" H 6150 3100 50  0001 C CNN
F 3 "" H 6150 3100 50  0001 C CNN
	1    6150 3100
	1    0    0    -1  
$EndComp
Text GLabel 6750 3500 2    50   Input ~ 0
PIXELS
Text GLabel 3750 6500 0    50   Input ~ 0
TRG_12V
$Comp
L Device:R_Small R1
U 1 1 5CDF82E6
P 3900 6500
F 0 "R1" V 3704 6500 50  0000 C CNN
F 1 "470R" V 3795 6500 50  0000 C CNN
F 2 "Resistors_SMD:R_0805_HandSoldering" H 3900 6500 50  0001 C CNN
F 3 "~" H 3900 6500 50  0001 C CNN
	1    3900 6500
	0    1    1    0   
$EndComp
$Comp
L itays_kicad_lib:GND #PWR0106
U 1 1 5CDFCCBE
P 4600 6700
F 0 "#PWR0106" H 4600 6450 50  0001 C CNN
F 1 "GND" H 4605 6527 50  0000 C CNN
F 2 "" H 4600 6700 50  0000 C CNN
F 3 "" H 4600 6700 50  0000 C CNN
	1    4600 6700
	1    0    0    -1  
$EndComp
Wire Wire Line
	3800 6500 3750 6500
Text GLabel 4600 6500 2    50   Input ~ 0
TRG_5V
Text GLabel 6750 3600 2    50   Input ~ 0
TRG_5V
$Comp
L Connector:USB_B_Micro J5
U 1 1 5CE0611F
P 8200 3800
F 0 "J5" H 7970 3789 50  0000 R CNN
F 1 "USB_B_Micro" H 7970 3698 50  0000 R CNN
F 2 "itay_kicad:USB_Micro-B_Aliexpress" H 8350 3750 50  0001 C CNN
F 3 "~" H 8350 3750 50  0001 C CNN
	1    8200 3800
	-1   0    0    -1  
$EndComp
$Comp
L Device:Q_PMOS_GSD Q2
U 1 1 5CE09AC9
P 6200 5300
F 0 "Q2" H 6406 5346 50  0000 L CNN
F 1 "AO3401" H 6406 5255 50  0000 L CNN
F 2 "TO_SOT_Packages_SMD:TSOT-23_HandSoldering" H 6400 5400 50  0001 C CNN
F 3 "~" H 6200 5300 50  0001 C CNN
	1    6200 5300
	1    0    0    -1  
$EndComp
$Comp
L power:+5V #PWR0107
U 1 1 5CE0BA41
P 6550 5550
F 0 "#PWR0107" H 6550 5400 50  0001 C CNN
F 1 "+5V" H 6565 5723 50  0000 C CNN
F 2 "" H 6550 5550 50  0001 C CNN
F 3 "" H 6550 5550 50  0001 C CNN
	1    6550 5550
	0    1    1    0   
$EndComp
Text GLabel 7700 3500 1    50   Input ~ 0
VBUS
Text GLabel 5550 5300 1    50   Input ~ 0
VBUS
$Comp
L itays_kicad_lib:TZT_STEPDOWN U1
U 1 1 5CDD939F
P 4500 3300
F 0 "U1" H 4350 3375 50  0000 C CNN
F 1 "TZT_STEPDOWN" H 4350 3284 50  0000 C CNN
F 2 "itay_kicad:TZP_STEPDOWN" H 4500 3300 50  0001 C CNN
F 3 "" H 4500 3300 50  0001 C CNN
	1    4500 3300
	1    0    0    -1  
$EndComp
Text GLabel 6300 5100 1    50   Input ~ 0
VREG_5V
$Comp
L Device:R_Small R3
U 1 1 5CE101D6
P 5800 5700
F 0 "R3" H 5741 5654 50  0000 R CNN
F 1 "100k" H 5741 5745 50  0000 R CNN
F 2 "Resistors_SMD:R_0805_HandSoldering" H 5800 5700 50  0001 C CNN
F 3 "~" H 5800 5700 50  0001 C CNN
	1    5800 5700
	-1   0    0    1   
$EndComp
$Comp
L itays_kicad_lib:GND #PWR0109
U 1 1 5CE30012
P 8250 4200
F 0 "#PWR0109" H 8250 3950 50  0001 C CNN
F 1 "GND" H 8255 4027 50  0000 C CNN
F 2 "" H 8250 4200 50  0000 C CNN
F 3 "" H 8250 4200 50  0000 C CNN
	1    8250 4200
	1    0    0    -1  
$EndComp
Wire Wire Line
	8200 4200 8250 4200
Wire Wire Line
	8250 4200 8300 4200
Connection ~ 8250 4200
$Comp
L Device:R_Small R7
U 1 1 5CE31783
P 7700 3650
F 0 "R7" H 7850 3650 50  0000 R CNN
F 1 "1k" V 7700 3700 39  0000 R CNN
F 2 "Resistors_SMD:R_0805_HandSoldering" H 7700 3650 50  0001 C CNN
F 3 "~" H 7700 3650 50  0001 C CNN
	1    7700 3650
	-1   0    0    -1  
$EndComp
$Comp
L Device:R_Small R5
U 1 1 5CE31D13
P 7350 3800
F 0 "R5" V 7450 3800 50  0000 C CNN
F 1 "68R" V 7350 3800 39  0000 C CNN
F 2 "Resistors_SMD:R_0805_HandSoldering" H 7350 3800 50  0001 C CNN
F 3 "~" H 7350 3800 50  0001 C CNN
	1    7350 3800
	0    -1   -1   0   
$EndComp
$Comp
L Device:R_Small R6
U 1 1 5CE31F75
P 7350 3900
F 0 "R6" V 7250 3950 50  0000 C CNN
F 1 "68R" V 7350 3900 39  0000 C CNN
F 2 "Resistors_SMD:R_0805_HandSoldering" H 7350 3900 50  0001 C CNN
F 3 "~" H 7350 3900 50  0001 C CNN
	1    7350 3900
	0    -1   -1   0   
$EndComp
$Comp
L Device:D_Zener_Small D1
U 1 1 5CE36FF2
P 7500 4200
F 0 "D1" V 7400 4200 50  0000 L CNN
F 1 "ZMM3V6 " H 7250 4100 50  0000 L CNN
F 2 "Diode_SMD_NEW:D_MiniMELF_Handsoldering" V 7500 4200 50  0001 C CNN
F 3 "~" V 7500 4200 50  0001 C CNN
	1    7500 4200
	0    1    1    0   
$EndComp
$Comp
L Device:D_Zener_Small D2
U 1 1 5CE3759C
P 7700 4200
F 0 "D2" V 7600 4100 50  0000 L CNN
F 1 "ZMM3V6" H 7500 4300 50  0000 L CNN
F 2 "Diode_SMD_NEW:D_MiniMELF_Handsoldering" V 7700 4200 50  0001 C CNN
F 3 "~" V 7700 4200 50  0001 C CNN
	1    7700 4200
	0    1    1    0   
$EndComp
$Comp
L itays_kicad_lib:GND #PWR0110
U 1 1 5CE37BF4
P 7600 4300
F 0 "#PWR0110" H 7600 4050 50  0001 C CNN
F 1 "GND" H 7605 4127 50  0000 C CNN
F 2 "" H 7600 4300 50  0000 C CNN
F 3 "" H 7600 4300 50  0000 C CNN
	1    7600 4300
	1    0    0    -1  
$EndComp
Wire Wire Line
	7500 4300 7600 4300
Connection ~ 7600 4300
Wire Wire Line
	7600 4300 7700 4300
Wire Wire Line
	7450 3800 7500 3800
Wire Wire Line
	7450 3900 7700 3900
Connection ~ 7700 3900
Wire Wire Line
	7700 3900 7900 3900
Wire Wire Line
	7700 3900 7700 4100
Wire Wire Line
	7500 4100 7500 3800
Connection ~ 7500 3800
Wire Wire Line
	7250 3900 6950 3900
Wire Wire Line
	6950 3900 6950 3700
Wire Wire Line
	6950 3700 6750 3700
Wire Wire Line
	6750 3800 7250 3800
$Comp
L Device:C_Small C3
U 1 1 5CE6A90D
P 5500 2900
F 0 "C3" H 5592 2946 50  0000 L CNN
F 1 "0.1uF" H 5592 2855 50  0000 L CNN
F 2 "Capacitors_SMD:C_0805_HandSoldering" H 5500 2900 50  0001 C CNN
F 3 "~" H 5500 2900 50  0001 C CNN
	1    5500 2900
	1    0    0    -1  
$EndComp
$Comp
L Device:C_Small C2
U 1 1 5CE6B9CE
P 5300 2900
F 0 "C2" H 5100 2950 50  0000 L CNN
F 1 "10uF" H 5050 2850 50  0000 L CNN
F 2 "Capacitors_SMD:C_1206_HandSoldering" H 5300 2900 50  0001 C CNN
F 3 "~" H 5300 2900 50  0001 C CNN
	1    5300 2900
	1    0    0    -1  
$EndComp
Wire Wire Line
	5300 2800 5500 2800
$Comp
L power:+5V #PWR0111
U 1 1 5CE6E7FE
P 5300 2800
F 0 "#PWR0111" H 5300 2650 50  0001 C CNN
F 1 "+5V" H 5315 2973 50  0000 C CNN
F 2 "" H 5300 2800 50  0001 C CNN
F 3 "" H 5300 2800 50  0001 C CNN
	1    5300 2800
	1    0    0    -1  
$EndComp
Connection ~ 5300 2800
$Comp
L itays_kicad_lib:GND #PWR0112
U 1 1 5CE6F303
P 5300 3000
F 0 "#PWR0112" H 5300 2750 50  0001 C CNN
F 1 "GND" H 5305 2827 50  0000 C CNN
F 2 "" H 5300 3000 50  0000 C CNN
F 3 "" H 5300 3000 50  0000 C CNN
	1    5300 3000
	1    0    0    -1  
$EndComp
Wire Wire Line
	5500 3000 5300 3000
Connection ~ 5300 3000
$Comp
L Device:D_Small D3
U 1 1 5CE895FE
P 7950 5500
F 0 "D3" V 7996 5432 50  0000 R CNN
F 1 "PWR_ON" H 8100 5600 50  0000 R CNN
F 2 "LEDs:LED_0805_HandSoldering" V 7950 5500 50  0001 C CNN
F 3 "~" V 7950 5500 50  0001 C CNN
	1    7950 5500
	-1   0    0    1   
$EndComp
$Comp
L Device:R_Small R8
U 1 1 5CE8AF99
P 7750 5500
F 0 "R8" V 7850 5500 50  0000 C CNN
F 1 "300R" V 7750 5500 39  0000 C CNN
F 2 "Resistors_SMD:R_0805_HandSoldering" H 7750 5500 50  0001 C CNN
F 3 "~" H 7750 5500 50  0001 C CNN
	1    7750 5500
	0    -1   -1   0   
$EndComp
$Comp
L itays_kicad_lib:GND #PWR0113
U 1 1 5CE8CB72
P 8050 5500
F 0 "#PWR0113" H 8050 5250 50  0001 C CNN
F 1 "GND" H 8055 5327 50  0000 C CNN
F 2 "" H 8050 5500 50  0000 C CNN
F 3 "" H 8050 5500 50  0000 C CNN
	1    8050 5500
	0    -1   -1   0   
$EndComp
$Comp
L Device:R_Small R4
U 1 1 5CE956AA
P 6800 4100
F 0 "R4" V 6700 4150 50  0000 C CNN
F 1 "10k" V 6800 4100 39  0000 C CNN
F 2 "Resistors_SMD:R_0805_HandSoldering" H 6800 4100 50  0001 C CNN
F 3 "~" H 6800 4100 50  0001 C CNN
	1    6800 4100
	1    0    0    -1  
$EndComp
$Comp
L Device:C_Small C5
U 1 1 5CE96050
P 6950 4100
F 0 "C5" H 7042 4146 50  0000 L CNN
F 1 "100nF" H 7042 4055 50  0000 L CNN
F 2 "Capacitors_SMD:C_0805_HandSoldering" H 6950 4100 50  0001 C CNN
F 3 "~" H 6950 4100 50  0001 C CNN
	1    6950 4100
	1    0    0    -1  
$EndComp
$Comp
L itays_kicad_lib:GND #PWR0114
U 1 1 5CE96AA9
P 6950 4200
F 0 "#PWR0114" H 6950 3950 50  0001 C CNN
F 1 "GND" H 6955 4027 50  0000 C CNN
F 2 "" H 6950 4200 50  0000 C CNN
F 3 "" H 6950 4200 50  0000 C CNN
	1    6950 4200
	1    0    0    -1  
$EndComp
$Comp
L power:+5V #PWR0115
U 1 1 5CE97533
P 6800 4200
F 0 "#PWR0115" H 6800 4050 50  0001 C CNN
F 1 "+5V" H 6815 4373 50  0000 C CNN
F 2 "" H 6800 4200 50  0001 C CNN
F 3 "" H 6800 4200 50  0001 C CNN
	1    6800 4200
	-1   0    0    1   
$EndComp
Wire Wire Line
	6750 3900 6800 3900
Wire Wire Line
	6800 3900 6800 3950
Wire Wire Line
	6950 4000 6950 3950
Wire Wire Line
	6950 3950 6800 3950
Connection ~ 6800 3950
Wire Wire Line
	6800 3950 6800 4000
$Comp
L Switch:SW_Push SW1
U 1 1 5CEB7C81
P 7800 5050
F 0 "SW1" H 7700 5150 50  0000 C CNN
F 1 "TEST" H 7900 5150 50  0000 C CNN
F 2 "Buttons_Switches_SMD:SW_SPST_SKQG" H 7800 5250 50  0001 C CNN
F 3 "~" H 7800 5250 50  0001 C CNN
	1    7800 5050
	-1   0    0    1   
$EndComp
$Comp
L itays_kicad_lib:GND #PWR0116
U 1 1 5CEB931E
P 8000 5050
F 0 "#PWR0116" H 8000 4800 50  0001 C CNN
F 1 "GND" V 8005 4922 50  0000 R CNN
F 2 "" H 8000 5050 50  0000 C CNN
F 3 "" H 8000 5050 50  0000 C CNN
	1    8000 5050
	0    -1   -1   0   
$EndComp
$Comp
L itays_kicad_lib:GND #PWR0117
U 1 1 5CEC1E04
P 8300 2850
F 0 "#PWR0117" H 8300 2600 50  0001 C CNN
F 1 "GND" V 8305 2722 50  0000 R CNN
F 2 "" H 8300 2850 50  0000 C CNN
F 3 "" H 8300 2850 50  0000 C CNN
	1    8300 2850
	-1   0    0    1   
$EndComp
$Comp
L Connector_Generic:Conn_01x07 J4
U 1 1 5CEC271B
P 8000 3050
F 0 "J4" H 7950 3450 50  0000 L CNN
F 1 "EXTERNAL" V 8100 2900 50  0000 L CNN
F 2 "Pin_Headers:Pin_Header_Straight_1x07_Pitch2.54mm" H 8000 3050 50  0001 C CNN
F 3 "~" H 8000 3050 50  0001 C CNN
	1    8000 3050
	0    1    1    0   
$EndComp
$Comp
L power:+5V #PWR0118
U 1 1 5CEC57D7
P 8200 2850
F 0 "#PWR0118" H 8200 2700 50  0001 C CNN
F 1 "+5V" V 8215 2978 50  0000 L CNN
F 2 "" H 8200 2850 50  0001 C CNN
F 3 "" H 8200 2850 50  0001 C CNN
	1    8200 2850
	1    0    0    -1  
$EndComp
Text GLabel 6750 3400 2    50   Input ~ 0
GENERAL
Text GLabel 7650 5500 0    50   Input ~ 0
GENERAL
Text GLabel 7150 3800 1    50   Input ~ 0
D+
Text GLabel 7150 3900 3    50   Input ~ 0
D-
Text GLabel 8100 2850 1    50   Input ~ 0
GENERAL
Text GLabel 8000 2850 1    50   Input ~ 0
PIXELS
Text GLabel 7900 2850 1    50   Input ~ 0
TRG_5V
$Comp
L Device:C_Small C6
U 1 1 5CF07575
P 7800 4950
F 0 "C6" V 7850 4850 50  0000 C CNN
F 1 "10nF" V 7938 4950 50  0000 C CNN
F 2 "Capacitors_SMD:C_0805_HandSoldering" H 7800 4950 50  0001 C CNN
F 3 "~" H 7800 4950 50  0001 C CNN
	1    7800 4950
	0    -1   -1   0   
$EndComp
Wire Wire Line
	7600 4950 7700 4950
Wire Wire Line
	7900 4950 8000 4950
Wire Wire Line
	8000 4950 8000 5050
Connection ~ 8000 5050
Wire Wire Line
	7600 4950 7600 5050
Connection ~ 7600 5050
Wire Wire Line
	7550 5050 7600 5050
Text GLabel 7550 5050 0    50   Input ~ 0
TRG_5V
$Comp
L itays_kicad_lib:GND #PWR0120
U 1 1 5CDDBABA
P 4050 5000
F 0 "#PWR0120" H 4050 4750 50  0001 C CNN
F 1 "GND" H 4055 4827 50  0000 C CNN
F 2 "" H 4050 5000 50  0000 C CNN
F 3 "" H 4050 5000 50  0000 C CNN
	1    4050 5000
	1    0    0    -1  
$EndComp
$Comp
L itays_kicad_lib:GND #PWR0121
U 1 1 5CF50E90
P 3800 4750
F 0 "#PWR0121" H 3800 4500 50  0001 C CNN
F 1 "GND" H 3805 4577 50  0000 C CNN
F 2 "" H 3800 4750 50  0000 C CNN
F 3 "" H 3800 4750 50  0000 C CNN
	1    3800 4750
	1    0    0    -1  
$EndComp
Wire Wire Line
	3800 4550 3850 4550
$Comp
L Mechanical:MountingHole_Pad H1
U 1 1 5CFA81FB
P 2300 5750
F 0 "H1" V 2254 5900 50  0000 L CNN
F 1 "MountingHole_Pad" V 2345 5900 50  0000 L CNN
F 2 "Mounting_Holes:MountingHole_3.2mm_M3_Pad_Via" H 2300 5750 50  0001 C CNN
F 3 "~" H 2300 5750 50  0001 C CNN
	1    2300 5750
	0    1    1    0   
$EndComp
$Comp
L Mechanical:MountingHole_Pad H2
U 1 1 5CFA8DB7
P 2300 5950
F 0 "H2" V 2254 6100 50  0000 L CNN
F 1 "MountingHole_Pad" V 2345 6100 50  0000 L CNN
F 2 "Mounting_Holes:MountingHole_3.2mm_M3_Pad_Via" H 2300 5950 50  0001 C CNN
F 3 "~" H 2300 5950 50  0001 C CNN
	1    2300 5950
	0    1    1    0   
$EndComp
$Comp
L Mechanical:MountingHole_Pad H3
U 1 1 5CFA8FF0
P 2300 6150
F 0 "H3" V 2254 6300 50  0000 L CNN
F 1 "MountingHole_Pad" V 2345 6300 50  0000 L CNN
F 2 "Mounting_Holes:MountingHole_3.2mm_M3_Pad_Via" H 2300 6150 50  0001 C CNN
F 3 "~" H 2300 6150 50  0001 C CNN
	1    2300 6150
	0    1    1    0   
$EndComp
$Comp
L Mechanical:MountingHole_Pad H4
U 1 1 5CFA930C
P 2300 6350
F 0 "H4" V 2254 6500 50  0000 L CNN
F 1 "MountingHole_Pad" V 2345 6500 50  0000 L CNN
F 2 "Mounting_Holes:MountingHole_3.2mm_M3_Pad_Via" H 2300 6350 50  0001 C CNN
F 3 "~" H 2300 6350 50  0001 C CNN
	1    2300 6350
	0    1    1    0   
$EndComp
Wire Wire Line
	7500 3800 7900 3800
Wire Wire Line
	7700 3750 7700 3900
Wire Wire Line
	7900 3600 7800 3600
Wire Wire Line
	7800 3600 7800 3550
Wire Wire Line
	7800 3550 7700 3550
Wire Wire Line
	7700 3500 7700 3550
Connection ~ 7700 3550
Text Notes 4600 6350 0    50   ~ 0
Internal Pullup
$Comp
L Isolator:PC817 U3
U 1 1 5D0B4CFE
P 4300 6600
F 0 "U3" H 4300 6925 50  0000 C CNN
F 1 "PC817" H 4300 6834 50  0000 C CNN
F 2 "Package_SO:SOP-4_3.8x4.1mm_P2.54mm" H 4100 6400 50  0001 L CIN
F 3 "http://www.soselectronic.cz/a_info/resource/d/pc817.pdf" H 4300 6600 50  0001 L CNN
	1    4300 6600
	1    0    0    -1  
$EndComp
$Comp
L itays_kicad_lib:GND #PWR0122
U 1 1 5D0BA0D4
P 4000 6700
F 0 "#PWR0122" H 4000 6450 50  0001 C CNN
F 1 "GND" H 4005 6527 50  0000 C CNN
F 2 "" H 4000 6700 50  0000 C CNN
F 3 "" H 4000 6700 50  0000 C CNN
	1    4000 6700
	1    0    0    -1  
$EndComp
$Comp
L itays_kicad_lib:GND #PWR0123
U 1 1 5D59ADE6
P 5800 5800
F 0 "#PWR0123" H 5800 5550 50  0001 C CNN
F 1 "GND" H 5805 5627 50  0000 C CNN
F 2 "" H 5800 5800 50  0000 C CNN
F 3 "" H 5800 5800 50  0000 C CNN
	1    5800 5800
	1    0    0    -1  
$EndComp
Wire Wire Line
	5550 5300 5800 5300
Connection ~ 5800 5300
Wire Wire Line
	5800 5300 6000 5300
$Comp
L itays_kicad_lib:GND #PWR0108
U 1 1 5CE12A6C
P 6300 5750
F 0 "#PWR0108" H 6300 5500 50  0001 C CNN
F 1 "GND" H 6305 5577 50  0000 C CNN
F 2 "" H 6300 5750 50  0000 C CNN
F 3 "" H 6300 5750 50  0000 C CNN
	1    6300 5750
	1    0    0    -1  
$EndComp
Connection ~ 6300 5550
$Comp
L Device:C_Small C4
U 1 1 5CE0C9FE
P 6300 5650
F 0 "C4" H 6392 5696 50  0000 L CNN
F 1 "10pF" H 6392 5605 50  0000 L CNN
F 2 "Capacitors_SMD:C_0805_HandSoldering" H 6300 5650 50  0001 C CNN
F 3 "~" H 6300 5650 50  0001 C CNN
	1    6300 5650
	1    0    0    -1  
$EndComp
Wire Wire Line
	6300 5550 6550 5550
Wire Wire Line
	6300 5500 6300 5550
$Comp
L Device:D_Schottky_Small D4
U 1 1 5D5A96F7
P 6050 5550
F 0 "D4" H 6050 5345 50  0000 C CNN
F 1 "MBR120" H 6050 5436 50  0000 C CNN
F 2 "Diode_SMD_NEW:D_SOD-123" V 6050 5550 50  0001 C CNN
F 3 "~" V 6050 5550 50  0001 C CNN
	1    6050 5550
	-1   0    0    1   
$EndComp
Wire Wire Line
	5800 5300 5800 5550
Wire Wire Line
	6150 5550 6300 5550
Wire Wire Line
	5950 5550 5800 5550
Connection ~ 5800 5550
Wire Wire Line
	5800 5550 5800 5600
Wire Wire Line
	4050 4600 4050 4650
Connection ~ 4050 4650
Wire Wire Line
	4050 4650 4050 4700
Wire Wire Line
	3800 4650 4050 4650
$Comp
L Device:CP1 C1
U 1 1 5CF2BEA6
P 4050 4850
F 0 "C1" H 4165 4896 50  0000 L CNN
F 1 "470uF" H 4165 4805 50  0000 L CNN
F 2 "Capacitors_SMD:CP_Elec_6.3x7.7" H 4050 4850 50  0001 C CNN
F 3 "~" H 4050 4850 50  0001 C CNN
	1    4050 4850
	1    0    0    -1  
$EndComp
Text GLabel 4050 4600 1    50   Input ~ 0
VREG_5V
Text GLabel 4750 3450 2    50   Input ~ 0
VREG_5V
Text Notes 8350 7650 0    50   ~ 0
26/07/2019
Text Notes 10700 7650 0    50   ~ 0
2.0
Text Notes 9350 7750 0    50   ~ 0
Itay Sperling
Text GLabel 7800 2850 1    50   Input ~ 0
D+
Text GLabel 7700 2850 1    50   Input ~ 0
D-
$EndSCHEMATC
